Final Project
…
Well change the column names

debtDf<-rename(debtDf, date = DATE, debt = GFDEBTN )
debtDf

## # A tibble: 51 x 2
##    date          debt
##    <date>       <dbl>
##  1 1969-01-01 360338 
##  2 1970-01-01 377484.
##  3 1971-01-01 406343 
##  4 1972-01-01 434050.
##  5 1973-01-01 461402.
##  6 1974-01-01 480510 
##  7 1975-01-01 543286.
##  8 1976-01-01 627292.
##  9 1977-01-01 690354.
## 10 1978-01-01 761932.
## #  with 41 more rows
…
